0.00034632,-8.8015e-06,0
0.00069263,-8.8015e-06,0
0.0010389,-8.8015e-06,0
0.0013853,-8.8015e-06,0
0.0017316,-8.8015e-06,0
0.0020779,-8.8015e-06,0
0.0024242,-8.8015e-06,0
0.0027705,-8.8015e-06,0
0.0031168,-8.8015e-06,0
0.0034631,-8.8015e-06,0
0.0038095,-8.8015e-06,0
0.0041558,0.00064955,0
0.0045021,0.00056214,0.00015711
0.0048484,0.00073913,7.2484e-05
0.0051947,0.00062554,7.0944e-05
0.005541,0.00056507,4.3234e-05
0.0058874,0.0004326,2.8189e-05
0.0062337,0.00045579,3.0175e-05
0.00658,0.00036508,1.8635e-05
0.0069263,0.00030088,1.3211e-05
0.0072726,0.00026568,1.0838e-05
0.0076189,0.00023157,8.678e-06
0.0079652,0.0002131,7.931e-06
0.0083115,0.00020165,6.0787e-06
0.0086579,0.0001693,4.2045e-06
0.0090042,0.00014904,3.2443e-06
0.0093505,0.00012961,2.4634e-06
0.0096968,0.0001187,2.2179e-06
0.010043,0.00010739,1.9221e-06
0.010389,9.804e-05,1.6733e-06
0.010736,9.0184e-05,1.5335e-06
0.011082,8.0328e-05,1.2341e-06
0.011428,7.2705e-05,1.0976e-06
0.011775,6.6178e-05,9.0548e-07
0.012121,6.2074e-05,8.4247e-07
0.012467,5.5898e-05,7.0408e-07
0.012814,4.9944e-05,5.8297e-07
0.01316,4.5725e-05,5.2586e-07
0.013506,4.2215e-05,4.7897e-07
0.013853,3.908e-05,4.3217e-07
0.014199,3.6146e-05,4.0531e-07
0.014545,3.3637e-05,3.6114e-07
0.014891,3.1393e-05,3.4627e-07
0.015238,2.9873e-05,3.2361e-07
0.015584,2.7776e-05,2.9813e-07
0.01593,2.5882e-05,2.8218e-07
0.016277,2.4163e-05,2.5739e-07
0.016623,2.2895e-05,2.5446e-07
0.016969,2.141e-05,2.4156e-07
0.017316,2.0389e-05,2.3403e-07
0.017662,1.9191e-05,2.0823e-07
0.018008,1.8145e-05,1.9998e-07
0.018355,1.7468e-05,1.9388e-07
0.018701,1.6471e-05,1.8494e-07
0.019047,1.5707e-05,1.7338e-07
0.019393,1.5158e-05,1.7042e-07
0.01974,1.4325e-05,1.574e-07
0.020086,1.375e-05,1.5082e-07
0.020432,1.3098e-05,1.4412e-07
0.020779,1.2583e-05,1.3867e-07
0.021125,1.2225e-05,1.3462e-07
0.021471,1.1707e-05,1.2461e-07
0.021818,1.1361e-05,1.2237e-07
0.022164,1.1074e-05,1.1806e-07
0.02251,1.0761e-05,1.1541e-07
0.022857,1.0525e-05,1.1204e-07
0.023203,1.0026e-05,1.0678e-07
0.023549,9.7638e-06,1.0048e-07
0.023895,9.422e-06,9.8541e-08
0.024242,9.2145e-06,9.5422e-08
0.024588,9.3544e-06,9.4251e-08
0.024934,9.0045e-06,9.1629e-08
0.025281,8.7787e-06,8.8813e-08
0.025627,8.539e-06,8.6907e-08
0.025973,8.4853e-06,8.7434e-08
0.02632,8.3624e-06,8.2041e-08
0.026666,8.1188e-06,8.1893e-08
0.027012,7.9853e-06,7.9381e-08
0.027358,7.8569e-06,7.8836e-08
0.027705,7.8278e-06,7.5986e-08
0.028051,7.7195e-06,7.5145e-08
0.028397,7.3801e-06,7.2081e-08
0.028744,7.4813e-06,7.3834e-08
0.02909,7.3171e-06,6.968e-08
0.029436,7.2453e-06,6.8528e-08
0.029783,7.1201e-06,6.8047e-08
0.030129,7.0535e-06,6.5535e-08
0.030475,7.1461e-06,6.6655e-08
0.030821,6.8208e-06,6.4938e-08
0.031168,6.6803e-06,6.4333e-08
0.031514,6.6594e-06,6.5144e-08
0.03186,6.7145e-06,6.4966e-08
0.032207,6.474e-06,6.2898e-08
0.032553,6.4544e-06,6.3188e-08
0.032899,6.4278e-06,6.328e-08
0.033246,6.3396e-06,6.4761e-08
0.033592,6.1497e-06,6.035e-08
0.033938,6.2772e-06,6.273e-08
0.034284,6.1918e-06,6.2211e-08
0.034631,6.2625e-06,6.241e-08
0.034977,6.0245e-06,6.1647e-08
0.035323,6.1521e-06,6.0879e-08
0.03567,6.0366e-06,6.0356e-08
0.036016,6.0163e-06,6.1039e-08
0.036362,6.0411e-06,5.9717e-08
0.036708,6.075e-06,6.053e-08
0.037055,6.0616e-06,6.1191e-08
0.037401,6.05e-06,6.1944e-08
0.037747,5.9784e-06,6.0415e-08
0.038094,5.9168e-06,5.9456e-08
0.03844,5.8175e-06,5.9042e-08
0.038786,5.8921e-06,5.9508e-08
0.039132,5.7951e-06,5.894e-08
0.039479,5.7426e-06,5.7548e-08
0.039825,5.8473e-06,5.7903e-08
0.040171,5.6887e-06,5.7822e-08
0.040518,5.7242e-06,5.8104e-08
0.040864,5.7147e-06,5.6814e-08
0.04121,5.7621e-06,5.6464e-08
0.041556,5.6074e-06,5.629e-08
0.041903,5.6161e-06,5.6093e-08
0.042249,5.4898e-06,5.454e-08
0.042595,5.6546e-06,5.2176e-08
0.042941,5.5502e-06,5.1123e-08
0.043288,5.615e-06,5.0568e-08
0.043634,5.5188e-06,4.8571e-08
0.04398,5.5472e-06,4.759e-08
0.044327,5.471e-06,4.7326e-08
0.044673,5.6316e-06,4.6355e-08
0.045019,5.378e-06,4.5472e-08
0.045365,5.4064e-06,4.4163e-08
0.045712,5.3724e-06,4.4486e-08
0.046058,5.364e-06,4.3435e-08
0.046404,5.3106e-06,4.3481e-08
0.04675,5.25e-06,4.1656e-08
0.047097,5.2833e-06,4.1733e-08
0.047443,5.3217e-06,4.1909e-08
0.047789,5.3337e-06,4.0993e-08
0.048136,5.1823e-06,3.9861e-08
0.048482,5.1915e-06,3.9331e-08
0.048828,5.226e-06,3.9095e-08
0.049174,5.1596e-06,3.8925e-08
0.049521,5.1719e-06,3.8784e-08
0.049867,5.1493e-06,3.7463e-08
0.050213,5.144e-06,3.7446e-08
0.050559,5.0462e-06,3.739e-08
0.050906,5.1342e-06,3.6927e-08
0.051252,5.0373e-06,3.6501e-08
0.051598,5.1005e-06,3.6306e-08
0.051944,5.1914e-06,3.6614e-08
0.052291,5.1221e-06,3.5571e-08
0.052637,5.097e-06,3.4885e-08
0.052983,5.0294e-06,3.5191e-08
0.053329,5.0887e-06,3.4728e-08
0.053676,5.1179e-06,3.4596e-08
0.054022,5.0733e-06,3.4626e-08
0.054368,5.0844e-06,3.3331e-08
0.054714,5.0327e-06,3.363e-08
0.055061,5.1014e-06,3.3762e-08
0.055407,5.1177e-06,3.319e-08
0.055753,4.9864e-06,3.2461e-08
0.056099,4.947e-06,3.2062e-08
0.056446,5.0098e-06,3.2471e-08
0.056792,5.0042e-06,3.2621e-08
0.057138,4.9183e-06,3.1326e-08
0.057484,4.9581e-06,3.1263e-08
0.057831,4.9137e-06,3.0838e-08
0.058177,4.9083e-06,3.1523e-08
0.058523,4.9801e-06,3.084e-08
0.058869,4.9696e-06,3.0446e-08
0.059216,4.9843e-06,3.0655e-08
0.059562,4.8891e-06,3.0046e-08
0.059908,4.906e-06,2.9408e-08
0.060254,4.9229e-06,2.9225e-08
0.060601,4.8917e-06,2.9073e-08
0.060947,4.9503e-06,2.9318e-08
0.061293,4.9673e-06,2.8966e-08
0.061639,4.837e-06,2.8383e-08
0.061986,4.9078e-06,2.8385e-08
0.062332,4.8617e-06,2.8318e-08
0.062678,4.9008e-06,2.8496e-08
0.063024,4.8508e-06,2.7522e-08
0.063371,4.8954e-06,2.8044e-08
0.063717,4.7434e-06,2.7276e-08
0.064063,4.7815e-06,2.73e-08
0.064409,4.8543e-06,2.7162e-08
0.064755,4.8315e-06,2.6903e-08
0.065102,4.8201e-06,2.6746e-08
0.065448,4.8567e-06,2.7039e-08
0.065794,4.7711e-06,2.6303e-08
0.06614,4.8197e-06,2.6962e-08
0.066487,4.7331e-06,2.7133e-08
0.066833,4.8176e-06,2.7893e-08
0.067179,4.7373e-06,2.7464e-08
0.067525,4.8198e-06,2.7916e-08
0.067871,4.7611e-06,2.753e-08
0.068218,4.7619e-06,2.8226e-08
0.068564,4.7176e-06,2.6803e-08
0.06891,4.7181e-06,2.6331e-08
0.069256,4.7214e-06,2.6009e-08
0.069603,4.7601e-06,2.5818e-08
0.069949,4.6396e-06,2.5452e-08
0.070295,4.6929e-06,2.5144e-08
0.070641,4.6847e-06,2.5071e-08
0.070987,4.6334e-06,2.4972e-08
0.071334,4.7635e-06,2.4864e-08
0.07168,4.7313e-06,2.461e-08
0.072026,4.7235e-06,2.4315e-08
0.072372,4.6195e-06,2.397e-08
0.072718,4.6511e-06,2.4017e-08
0.073065,4.6279e-06,2.3817e-08
0.073411,4.7083e-06,2.3657e-08
0.073757,4.6266e-06,2.3531e-08
0.074103,4.6651e-06,2.314e-08
0.074449,4.6341e-06,2.3034e-08
0.074796,4.6994e-06,2.2728e-08
0.075142,4.6979e-06,2.2907e-08
0.075488,4.6571e-06,2.2699e-08
0.075834,4.5917e-06,2.2486e-08
0.07618,4.6934e-06,2.2243e-08
0.076527,4.6559e-06,2.2324e-08
0.076873,4.5702e-06,2.1943e-08
0.077219,4.6398e-06,2.2092e-08
0.077565,4.6587e-06,2.1794e-08
0.077911,4.6167e-06,2.1859e-08
0.078258,4.6183e-06,2.1716e-08
0.078604,4.5833e-06,2.1508e-08
0.07895,4.5608e-06,2.1092e-08
0.079296,4.6026e-06,2.1465e-08
0.079642,4.5469e-06,2.0987e-08
0.079988,4.5673e-06,2.0992e-08
0.080335,4.5803e-06,2.0937e-08
0.080681,4.57e-06,2.0997e-08
0.081027,4.5949e-06,2.1004e-08
0.081373,4.5355e-06,2.0571e-08
0.081719,4.5789e-06,2.0817e-08
0.082065,4.6077e-06,2.0389e-08
0.082412,4.5026e-06,2.0279e-08
0.082758,4.5772e-06,2.0413e-08
0.083104,4.5717e-06,2.0197e-08
0.08345,4.486e-06,1.9938e-08
0.083796,4.5138e-06,2.0046e-08
0.084143,4.5855e-06,1.9817e-08
0.084489,4.5551e-06,1.9879e-08
0.084835,4.5567e-06,1.9684e-08
0.085181,4.5286e-06,1.9613e-08
0.085527,4.5225e-06,1.9567e-08
0.085873,4.4871e-06,1.9345e-08
0.086219,4.4642e-06,1.9297e-08
0.086566,4.4855e-06,1.9131e-08
0.086912,4.4917e-06,1.9192e-08
0.087258,4.5393e-06,1.9267e-08
0.087604,4.4542e-06,1.9073e-08
0.08795,4.4964e-06,1.8941e-08
0.088296,4.4884e-06,1.8653e-08
0.088643,4.4923e-06,1.8631e-08
0.088989,4.4568e-06,1.8764e-08
0.089335,4.4953e-06,1.8592e-08
0.089681,4.4272e-06,1.8348e-08
0.090027,4.4844e-06,1.8361e-08
0.090373,4.4881e-06,1.8457e-08
0.090719,4.4782e-06,1.8226e-08
0.091066,4.4778e-06,1.8246e-08
0.091412,4.4797e-06,1.7959e-08
0.091758,4.4206e-06,1.8127e-08
0.092104,4.4963e-06,1.7882e-08
0.09245,4.4027e-06,1.7715e-08
0.092796,4.401e-06,1.7596e-08
0.093142,4.466e-06,1.7766e-08
0.093489,4.4838e-06,1.7691e-08
0.093835,4.431e-06,1.7258e-08
0.094181,4.4674e-06,1.7445e-08
0.094527,4.377e-06,1.7148e-08
0.094873,4.3955e-06,1.7246e-08
0.095219,4.4594e-06,1.7281e-08
0.095565,4.3655e-06,1.6882e-08
0.095911,4.407e-06,1.7151e-08
0.096258,4.4413e-06,1.7064e-08
0.096604,4.4064e-06,1.6851e-08
0.09695,4.4148e-06,1.6692e-08
0.097296,4.392e-06,1.6594e-08
0.097642,4.432e-06,1.6938e-08
0.097988,4.4696e-06,1.6666e-08
0.098334,4.4753e-06,1.6556e-08
0.09868,4.3895e-06,1.6376e-08
0.099026,4.351e-06,1.6373e-08
0.099373,4.4284e-06,1.6548e-08
0.099719,4.3608e-06,1.6091e-08
0.10006,4.383e-06,1.6246e-08
0.10041,4.3908e-06,1.6032e-08
0.10076,4.4038e-06,1.6185e-08
0.1011,4.3716e-06,1.6024e-08
0.10145,4.363e-06,1.595e-08
0.1018,4.3131e-06,1.5778e-08
0.10214,4.3851e-06,1.5866e-08
0.10249,4.4013e-06,1.6102e-08
0.10283,4.3557e-06,1.5997e-08
0.10318,4.4381e-06,1.6599e-08
0.10353,4.2875e-06,1.6297e-08
0.10387,4.3911e-06,1.6354e-08
0.10422,4.3354e-06,1.6721e-08
0.10456,4.363e-06,1.6933e-08
0.10491,4.3507e-06,1.7059e-08
0.10526,4.4417e-06,1.7157e-08
0.1056,4.3432e-06,1.6528e-08
0.10595,4.4021e-06,1.6817e-08
0.10629,4.3524e-06,1.6821e-08
0.10664,4.3626e-06,1.6782e-08
0.10699,4.3197e-06,1.6672e-08
0.10733,4.3904e-06,1.6826e-08
0.10768,4.311e-06,1.6709e-08
0.10802,4.3552e-06,1.6731e-08
0.10837,4.3132e-06,1.6245e-08
0.10872,4.3643e-06,1.653e-08
0.10906,4.327e-06,1.6357e-08
0.10941,4.387e-06,1.6759e-08
0.10976,4.3639e-06,1.6364e-08
0.1101,4.3449e-06,1.692e-08
0.11045,4.3082e-06,1.6971e-08
0.11079,4.4202e-06,1.732e-08
0.11114,4.4127e-06,1.7628e-08
0.11149,4.3834e-06,1.7632e-08
0.11183,4.3863e-06,1.792e-08
0.11218,4.2835e-06,1.7899e-08
0.11252,4.3863e-06,1.821e-08
0.11287,4.2962e-06,1.7855e-08
0.11322,4.3517e-06,1.8525e-08
0.11356,4.3086e-06,1.8443e-08
0.11391,4.3291e-06,1.849e-08
0.11425,4.3821e-06,1.8301e-08
0.1146,4.3806e-06,1.856e-08
0.11495,4.3589e-06,1.8638e-08
0.11529,4.3272e-06,1.8888e-08
0.11564,4.3431e-06,1.8958e-08
0.11598,4.3158e-06,1.8256e-08
0.11633,4.3458e-06,1.8021e-08
0.11668,4.325e-06,1.7803e-08
0.11702,4.3248e-06,1.7931e-08
0.11737,4.32e-06,1.7692e-08
0.11771,4.3328e-06,1.7666e-08
0.11806,4.3203e-06,1.7528e-08
0.11841,4.3454e-06,1.7646e-08
0.11875,4.3847e-06,1.7383e-08
0.1191,4.3098e-06,1.7397e-08
0.11944,4.3218e-06,1.7508e-08
0.11979,4.3527e-06,1.7389e-08
0.12014,4.2407e-06,1.6783e-08
0.12048,4.3378e-06,1.7067e-08
0.12083,4.3068e-06,1.7104e-08
0.12117,4.3125e-06,1.7048e-08
0.12152,4.3129e-06,1.7141e-08
0.12187,4.3843e-06,1.7031e-08
0.12221,4.3578e-06,1.7022e-08
0.12256,4.2703e-06,1.6668e-08
0.1229,4.2891e-06,1.6721e-08
0.12325,4.3268e-06,1.6905e-08
0.1236,4.3752e-06,1.6994e-08
0.12394,4.2877e-06,1.6634e-08
0.12429,4.2923e-06,1.6719e-08
0.12463,4.2665e-06,1.6369e-08
0.12498,4.3287e-06,1.6573e-08
0.12533,4.2962e-06,1.6562e-08
0.12567,4.2729e-06,1.6646e-08
0.12602,4.3469e-06,1.6374e-08
0.12636,4.2811e-06,1.6355e-08
0.12671,4.2903e-06,1.6241e-08
0.12706,4.2865e-06,1.6377e-08
0.1274,4.3445e-06,1.624e-08
0.12775,4.2689e-06,1.6218e-08
0.12809,4.2759e-06,1.6255e-08
0.12844,4.3261e-06,1.6289e-08
0.12879,4.2845e-06,1.6105e-08
0.12913,4.3198e-06,1.5979e-08
0.12948,4.3287e-06,1.6346e-08
0.12982,4.2596e-06,1.5994e-08
0.13017,4.2911e-06,1.6049e-08
0.13052,4.3017e-06,1.5779e-08
0.13086,4.347e-06,1.6136e-08
0.13121,4.2487e-06,1.5852e-08
0.13155,4.3035e-06,1.6009e-08
0.1319,4.2752e-06,1.5705e-08
0.13225,4.2447e-06,1.5767e-08
0.13259,4.2933e-06,1.5733e-08
0.13294,4.2943e-06,1.5757e-08
0.13328,4.2753e-06,1.554e-08
0.13363,4.3086e-06,1.5745e-08
0.13398,4.3176e-06,1.5789e-08
0.13432,4.2661e-06,1.5607e-08
0.13467,4.3117e-06,1.5675e-08
0.13501,4.2919e-06,1.5465e-08
0.13536,4.2974e-06,1.5821e-08
0.1357,4.2172e-06,1.5565e-08
0.13605,4.2832e-06,1.5585e-08
0.1364,4.2824e-06,1.5443e-08
0.13674,4.2919e-06,1.5475e-08
0.13709,4.2658e-06,1.554e-08
0.13743,4.2816e-06,1.5485e-08
0.13778,4.2498e-06,1.5291e-08
0.13813,4.2685e-06,1.5461e-08
0.13847,4.2572e-06,1.527e-08
0.13882,4.2888e-06,1.5431e-08
0.13916,4.3993e-06,1.5511e-08
0.13951,4.2396e-06,1.5306e-08
0.13986,4.2827e-06,1.5376e-08
0.1402,4.3043e-06,1.5483e-08
0.14055,4.2541e-06,1.5177e-08
0.14089,4.2647e-06,1.4992e-08
0.14124,4.3279e-06,1.5376e-08
0.14159,4.2581e-06,1.5154e-08
0.14193,4.2382e-06,1.5039e-08
0.14228,4.2758e-06,1.5082e-08
0.14262,4.3043e-06,1.5127e-08
0.14297,4.2933e-06,1.5072e-08
0.14331,4.2493e-06,1.4914e-08
0.14366,4.2534e-06,1.5004e-08
0.14401,4.2598e-06,1.5032e-08
0.14435,4.2601e-06,1.4998e-08
0.1447,4.2167e-06,1.5007e-08
0.14504,4.2427e-06,1.4582e-08
0.14539,4.3005e-06,1.4928e-08
0.14574,4.2692e-06,1.508e-08
0.14608,4.3298e-06,1.4882e-08
0.14643,4.2597e-06,1.4796e-08
0.14677,4.2878e-06,1.4599e-08
0.14712,4.2504e-06,1.471e-08
0.14747,4.2296e-06,1.4628e-08
0.14781,4.221e-06,1.46e-08
0.14816,4.2865e-06,1.4541e-08
0.1485,4.25e-06,1.4549e-08
0.14885,4.2797e-06,1.4593e-08
0.14919,4.2545e-06,1.4491e-08
0.14954,4.2376e-06,1.4419e-08
0.14989,4.2868e-06,1.4475e-08
0.15023,4.2544e-06,1.4515e-08
0.15058,4.2546e-06,1.4388e-08
0.15092,4.229e-06,1.4234e-08
0.15127,4.1884e-06,1.4221e-08
0.15162,4.2296e-06,1.4315e-08
0.15196,4.3159e-06,1.4425e-08
0.15231,4.2625e-06,1.4206e-08
0.15265,4.2274e-06,1.4221e-08
0.153,4.2823e-06,1.4209e-08
0.15334,4.2123e-06,1.4202e-08
0.15369,4.2713e-06,1.4191e-08
0.15404,4.2089e-06,1.3905e-08
0.15438,4.2375e-06,1.4124e-08
0.15473,4.2393e-06,1.4077e-08
0.15507,4.2634e-06,1.4044e-08
0.15542,4.2785e-06,1.4103e-08
0.15577,4.2293e-06,1.4057e-08
0.15611,4.2707e-06,1.4095e-08
0.15646,4.1938e-06,1.3874e-08
0.1568,4.2953e-06,1.4018e-08
0.15715,4.2686e-06,1.413e-08
0.15749,4.2422e-06,1.3935e-08
0.15784,4.2169e-06,1.3999e-08
0.15819,4.1973e-06,1.3687e-08
0.15853,4.273e-06,1.3884e-08
0.15888,4.2366e-06,1.3965e-08
0.15922,4.2431e-06,1.3863e-08
0.15957,4.2392e-06,1.3865e-08
0.15991,4.2634e-06,1.38e-08
0.16026,4.3103e-06,1.3921e-08
0.16061,4.2185e-06,1.3863e-08
0.16095,4.2237e-06,1.3771e-08
0.1613,4.2459e-06,1.3691e-08
0.16164,4.2416e-06,1.3691e-08
0.16199,4.2349e-06,1.3815e-08
0.16234,4.2728e-06,1.3822e-08
0.16268,4.2356e-06,1.3605e-08
0.16303,4.1506e-06,1.3525e-08
0.16337,4.206e-06,1.3578e-08
0.16372,4.2259e-06,1.3674e-08
0.16406,4.2305e-06,1.3403e-08
0.16441,4.2082e-06,1.3522e-08
0.16476,4.1881e-06,1.3515e-08
0.1651,4.2623e-06,1.3607e-08
0.16545,4.1899e-06,1.3394e-08
0.16579,4.2202e-06,1.3437e-08
0.16614,4.1933e-06,1.3438e-08
0.16648,4.1402e-06,1.3367e-08
0.16683,4.2409e-06,1.3442e-08
0.16718,4.239e-06,1.3254e-08
0.16752,4.1949e-06,1.3319e-08
0.16787,4.1859e-06,1.3254e-08
0.16821,4.179e-06,1.3281e-08
0.16856,4.2018e-06,1.3168e-08
0.1689,4.1516e-06,1.3113e-08
0.16925,4.1801e-06,1.3182e-08
0.1696,4.1594e-06,1.3222e-08
0.16994,4.1434e-06,1.3069e-08
0.17029,4.1791e-06,1.3094e-08
0.17063,4.1444e-06,1.3099e-08
0.17098,4.1462e-06,1.312e-08
0.17132,4.1733e-06,1.3091e-08
0.17167,4.1505e-06,1.2902e-08
0.17202,4.1705e-06,1.3114e-08
0.17236,4.1673e-06,1.2981e-08
0.17271,4.1389e-06,1.2997e-08
0.17305,4.1475e-06,1.2644e-08
0.1734,4.1668e-06,1.2978e-08
0.17374,4.1806e-06,1.288e-08
0.17409,4.2449e-06,1.3016e-08
0.17444,4.1722e-06,1.2948e-08
0.17478,4.1561e-06,1.289e-08
0.17513,4.1643e-06,1.2868e-08
0.17547,4.1191e-06,1.2788e-08
0.17582,4.1895e-06,1.2756e-08
0.17616,4.1603e-06,1.2734e-08
0.17651,4.0872e-06,1.2753e-08
0.17686,4.0893e-06,1.266e-08
0.1772,4.0997e-06,1.2593e-08
0.17755,4.1536e-06,1.2537e-08
0.17789,4.1154e-06,1.2686e-08
0.17824,4.1516e-06,1.2745e-08
0.17858,4.15e-06,1.2663e-08
0.17893,4.1259e-06,1.247e-08
0.17927,4.1532e-06,1.2649e-08
0.17962,4.0743e-06,1.2422e-08
0.17997,4.091e-06,1.2487e-08
0.18031,4.1332e-06,1.2477e-08
0.18066,4.0567e-06,1.2474e-08
0.181,4.1225e-06,1.2372e-08
0.18135,4.1142e-06,1.2512e-08
0.18169,4.1402e-06,1.2443e-08
0.18204,4.0621e-06,1.2333e-08
0.18239,4.1075e-06,1.248e-08
0.18273,4.0925e-06,1.2498e-08
0.18308,4.0814e-06,1.2265e-08
0.18342,4.0742e-06,1.261e-08
0.18377,4.1249e-06,1.2705e-08
0.18411,4.0867e-06,1.2985e-08
0.18446,4.1238e-06,1.3061e-08
0.1848,4.1075e-06,1.294e-08
0.18515,4.1037e-06,1.332e-08
0.1855,4.0679e-06,1.3207e-08
0.18584,4.1233e-06,1.342e-08
0.18619,4.1151e-06,1.3245e-08
0.18653,4.1323e-06,1.3487e-08
0.18688,4.1417e-06,1.3615e-08
0.18722,4.0634e-06,1.3318e-08
0.18757,4.1209e-06,1.3624e-08
0.18791,4.0775e-06,1.3476e-08
0.18826,4.0734e-06,1.3619e-08
0.18861,4.0455e-06,1.3764e-08
0.18895,4.0672e-06,1.3502e-08
0.1893,4.1191e-06,1.3438e-08
0.18964,4.0724e-06,1.3088e-08
0.18999,4.0541e-06,1.3036e-08
0.19033,4.078e-06,1.2938e-08
0.19068,4.0789e-06,1.2823e-08
0.19102,4.0879e-06,1.2956e-08
0.19137,4.0736e-06,1.2826e-08
0.19172,4.0635e-06,1.2753e-08
0.19206,4.1262e-06,1.272e-08
0.19241,4.0881e-06,1.2716e-08
0.19275,4.0688e-06,1.2581e-08
0.1931,4.0737e-06,1.2503e-08
0.19344,4.1019e-06,1.2447e-08
0.19379,4.1034e-06,1.2596e-08
0.19413,4.0686e-06,1.2466e-08
0.19448,4.0544e-06,1.2505e-08
0.19483,4.0972e-06,1.2395e-08
0.19517,4.078e-06,1.2313e-08
0.19552,4.1138e-06,1.2373e-08
0.19586,4.0626e-06,1.2215e-08
0.19621,4.0982e-06,1.2237e-08
0.19655,4.1566e-06,1.2365e-08
0.1969,4.0597e-06,1.2117e-08
0.19724,4.0889e-06,1.2275e-08
0.19759,4.0657e-06,1.195e-08
0.19794,4.0797e-06,1.2025e-08
0.19828,4.0897e-06,1.2126e-08
0.19863,4.0555e-06,1.2006e-08
0.19897,4.1164e-06,1.2062e-08
0.19932,4.101e-06,1.1922e-08
0.19966,4.0471e-06,1.2023e-08
0.20001,4.0761e-06,1.1991e-08
0.20035,4.1206e-06,1.2079e-08
0.2007,4.088e-06,1.1853e-08
0.20104,4.0943e-06,1.1883e-08
0.20139,4.0178e-06,1.1911e-08
0.20174,4.0686e-06,1.1866e-08
0.20208,4.035e-06,1.1718e-08
0.20243,4.1156e-06,1.1861e-08
0.20277,4.0759e-06,1.1937e-08
0.20312,4.0478e-06,1.1776e-08
0.20346,4.0642e-06,1.171e-08
0.20381,4.0813e-06,1.164e-08
0.20415,4.0172e-06,1.1693e-08
0.2045,4.0141e-06,1.1609e-08
0.20484,4.1058e-06,1.1885e-08
0.20519,4.0343e-06,1.1572e-08
0.20554,4.0741e-06,1.1686e-08
0.20588,4.0726e-06,1.1646e-08
0.20623,4.0895e-06,1.163e-08
0.20657,4.0977e-06,1.1628e-08
0.20692,4.1026e-06,1.1685e-08
0.20726,4.1012e-06,1.1555e-08
0.20761,4.0192e-06,1.1552e-08
0.20795,4.0797e-06,1.1555e-08
0.2083,4.0129e-06,1.1471e-08
0.20864,4.0926e-06,1.1647e-08
0.20899,4.0731e-06,1.1609e-08
0.20934,4.0383e-06,1.1311e-08
0.20968,4.0711e-06,1.1398e-08
0.21003,4.0659e-06,1.1513e-08
0.21037,4.0743e-06,1.1435e-08
0.21072,4.0855e-06,1.1386e-08
0.21106,4.0969e-06,1.1368e-08
0.21141,4.0251e-06,1.1322e-08
0.21175,4.096e-06,1.1302e-08
0.2121,4.0589e-06,1.1324e-08
0.21244,4.0261e-06,1.1023e-08
0.21279,4.0186e-06,1.118e-08
0.21313,4.0557e-06,1.1312e-08
0.21348,4.0725e-06,1.1272e-08
0.21382,4.0681e-06,1.1173e-08
0.21417,4.0213e-06,1.1027e-08
0.21452,4.0502e-06,1.1155e-08
0.21486,3.9841e-06,1.108e-08
0.21521,4.0595e-06,1.1012e-08
0.21555,4.0819e-06,1.1112e-08
0.2159,4.0276e-06,1.1129e-08
0.21624,4.0729e-06,1.1161e-08
0.21659,4.077e-06,1.1175e-08
0.21693,4.0337e-06,1.1005e-08
0.21728,4.0548e-06,1.1126e-08
0.21762,4.0906e-06,1.1133e-08
0.21797,4.067e-06,1.0957e-08
0.21831,4.0814e-06,1.1044e-08
0.21866,4.0646e-06,1.1107e-08
0.219,4.0582e-06,1.0976e-08
0.21935,4.0575e-06,1.1013e-08
0.2197,3.9915e-06,1.0831e-08
0.22004,4.0584e-06,1.1014e-08
0.22039,4.0436e-06,1.0904e-08
0.22073,4.0432e-06,1.0949e-08
0.22108,4.066e-06,1.094e-08
0.22142,4.0267e-06,1.0782e-08
0.22177,4.0775e-06,1.0897e-08
0.22211,4.0896e-06,1.0918e-08
0.22246,4.0103e-06,1.0821e-08
0.2228,4.0103e-06,1.0765e-08
0.22315,4.047e-06,1.0804e-08
0.22349,4.0258e-06,1.0802e-08
0.22384,4.0255e-06,1.0811e-08
0.22418,4.0556e-06,1.0704e-08
0.22453,4.0056e-06,1.0745e-08
0.22487,4.0413e-06,1.0742e-08
0.22522,4.0493e-06,1.0794e-08
0.22557,4.0383e-06,1.058e-08
0.22591,4.0741e-06,1.07e-08
0.22626,4.0174e-06,1.0679e-08
0.2266,4.0666e-06,1.0747e-08
0.22695,4.0386e-06,1.0701e-08
0.22729,4.0651e-06,1.0636e-08
0.22764,4.04e-06,1.0628e-08
0.22798,4.0622e-06,1.0684e-08
0.22833,4.0609e-06,1.0624e-08
0.22867,4.0375e-06,1.0543e-08
0.22902,4.0065e-06,1.0563e-08
0.22936,4.012e-06,1.0553e-08
0.22971,4.0378e-06,1.0578e-08
0.23005,4.0575e-06,1.0421e-08
0.2304,4.013e-06,1.0442e-08
0.23074,4.0005e-06,1.0508e-08
0.23109,4.0199e-06,1.0471e-08
0.23143,3.9998e-06,1.035e-08
0.23178,4.0248e-06,1.037e-08
0.23212,3.9973e-06,1.0356e-08
0.23247,3.9854e-06,1.0385e-08
0.23281,4.019e-06,1.0333e-08
0.23316,4.0355e-06,1.0329e-08
0.23351,4.0168e-06,1.0331e-08
0.23385,4.0036e-06,1.0348e-08
0.2342,3.9943e-06,1.0214e-08
0.23454,4.0307e-06,1.035e-08
0.23489,3.972e-06,1.0235e-08
0.23523,3.9948e-06,1.0256e-08
0.23558,3.9673e-06,1.0201e-08
0.23592,3.9776e-06,1.0201e-08
0.23627,4.0086e-06,1.0234e-08
0.23661,3.943e-06,1.0141e-08
0.23696,4.0077e-06,1.0492e-08
0.2373,3.9853e-06,1.046e-08
0.23765,4.0187e-06,1.067e-08
0.23799,4.0215e-06,1.0774e-08
0.23834,4.0065e-06,1.0774e-08
0.23868,4.0181e-06,1.0759e-08
0.23903,3.9373e-06,1.0823e-08
0.23937,4.0795e-06,1.1018e-08
0.23972,3.9666e-06,1.083e-08
0.24006,4.0157e-06,1.0938e-08
0.24041,4.02e-06,1.1013e-08
0.24075,4.0036e-06,1.1042e-08
0.2411,3.9758e-06,1.0976e-08
0.24144,4.0509e-06,1.105e-08
0.24179,4.0195e-06,1.1112e-08
0.24213,4.0122e-06,1.1157e-08
0.24248,4.0206e-06,1.1156e-08
0.24282,4.0043e-06,1.1189e-08
0.24317,3.9802e-06,1.121e-08
0.24351,4.0064e-06,1.1258e-08
0.24386,4.0282e-06,1.1289e-08
0.2442,3.9797e-06,1.1236e-08
0.24455,3.9998e-06,1.1241e-08
0.24489,4.0134e-06,1.1427e-08
0.24524,4.0679e-06,1.1543e-08
0.24558,4.0155e-06,1.1402e-08
0.24593,3.9975e-06,1.1404e-08
0.24627,4.0292e-06,1.1461e-08
0.24662,3.9506e-06,1.1401e-08
0.24696,4.0468e-06,1.1528e-08
0.24731,4.0122e-06,1.1481e-08
0.24765,4.0046e-06,1.1528e-08
0.248,3.9837e-06,1.1614e-08
0.24834,4.0057e-06,1.1498e-08
0.24869,3.9858e-06,1.1508e-08
0.24903,3.962e-06,1.1583e-08
0.24938,4.0156e-06,1.1544e-08
0.24972,4.0227e-06,1.1614e-08
0.25007,3.9445e-06,1.1559e-08
0.25041,3.9919e-06,1.1648e-08
0.25076,4.0356e-06,1.1754e-08
0.2511,4.0095e-06,1.1637e-08
0.25145,4.0173e-06,1.1692e-08
0.25179,3.9971e-06,1.1721e-08
0.25214,3.9772e-06,1.1683e-08
0.25248,4.0108e-06,1.1719e-08
0.25283,3.996e-06,1.1729e-08
0.25317,3.985e-06,1.1774e-08
0.25352,4.012e-06,1.1783e-08
0.25386,4.0011e-06,1.1715e-08
0.25421,3.997e-06,1.1905e-08
0.25455,4.0215e-06,1.1817e-08
0.2549,3.9854e-06,1.1751e-08
0.25524,3.9947e-06,1.1892e-08
0.25559,3.9734e-06,1.1785e-08
0.25593,4.0094e-06,1.1862e-08
0.25628,4.0305e-06,1.1939e-08
0.25662,4.0892e-06,1.2447e-08
0.25697,3.9644e-06,1.2563e-08
0.25731,3.9723e-06,1.2531e-08
0.25766,3.9728e-06,1.2761e-08
0.258,3.9632e-06,1.2882e-08
0.25835,3.9609e-06,1.3045e-08
0.25869,3.9756e-06,1.3241e-08
0.25904,3.9815e-06,1.314e-08
0.25938,3.9822e-06,1.3335e-08
0.25973,3.9869e-06,1.3341e-08
0.26007,3.9212e-06,1.3239e-08
0.26042,3.9993e-06,1.3691e-08
0.26076,3.9777e-06,1.3619e-08
0.26111,4.0021e-06,1.3747e-08
0.26145,3.9641e-06,1.3743e-08
0.2618,3.9795e-06,1.3775e-08
0.26214,3.9503e-06,1.3637e-08
0.26249,3.9748e-06,1.3454e-08
0.26283,4.0161e-06,1.3399e-08
0.26318,3.9845e-06,1.3092e-08
0.26352,3.9408e-06,1.2827e-08
0.26387,4.0239e-06,1.2984e-08
0.26421,3.9751e-06,1.29e-08
0.26456,3.8967e-06,1.2668e-08
0.2649,3.9571e-06,1.2783e-08
0.26525,3.9932e-06,1.2657e-08
0.26559,3.9685e-06,1.2772e-08
0.26594,3.9306e-06,1.2518e-08
0.26628,3.9333e-06,1.2425e-08
0.26663,3.9241e-06,1.2514e-08
0.26697,3.8965e-06,1.247e-08
0.26731,3.9021e-06,1.2367e-08
0.26766,4.002e-06,1.2524e-08
0.268,4.0121e-06,1.2521e-08
0.26835,3.9418e-06,1.2499e-08
0.26869,3.9174e-06,1.2267e-08
0.26904,3.9721e-06,1.2493e-08
0.26938,3.9391e-06,1.2286e-08
0.26973,3.9691e-06,1.2397e-08
0.27007,3.9112e-06,1.2264e-08
0.27042,3.9355e-06,1.2238e-08
0.27076,3.9471e-06,1.2236e-08
0.27111,3.9317e-06,1.2185e-08
0.27145,3.937e-06,1.2263e-08
0.2718,3.9742e-06,1.2346e-08
0.27214,3.9515e-06,1.2192e-08
0.27249,3.9861e-06,1.227e-08
0.27283,3.9278e-06,1.2298e-08
0.27318,3.9555e-06,1.2495e-08
0.27352,3.9459e-06,1.2642e-08
0.27387,3.8914e-06,1.2788e-08
0.27421,3.9135e-06,1.2938e-08
0.27456,3.939e-06,1.2981e-08
0.2749,3.9182e-06,1.3376e-08
0.27524,3.9218e-06,1.3258e-08
0.27559,3.9395e-06,1.3282e-08
0.27593,3.9506e-06,1.3421e-08
0.27628,3.9479e-06,1.3371e-08
0.27662,3.9144e-06,1.3336e-08
0.27697,3.8888e-06,1.3333e-08
0.27731,3.9509e-06,1.3614e-08
0.27766,3.8777e-06,1.3477e-08
0.278,3.8991e-06,1.3538e-08
0.27835,3.928e-06,1.3671e-08
0.27869,3.9542e-06,1.3872e-08
0.27904,3.979e-06,1.3958e-08
0.27938,3.9487e-06,1.4069e-08
0.27973,3.9116e-06,1.3923e-08
0.28007,3.9066e-06,1.4035e-08
0.28042,3.885e-06,1.4092e-08
0.28076,3.921e-06,1.4057e-08
0.2811,3.892e-06,1.4117e-08
0.28145,3.948e-06,1.4312e-08
0.28179,3.9499e-06,1.427e-08
0.28214,3.9108e-06,1.4351e-08
0.28248,4.0032e-06,1.4559e-08
0.28283,3.9767e-06,1.4512e-08
0.28317,3.9095e-06,1.4668e-08
0.28352,3.957e-06,1.4676e-08
0.28386,3.9954e-06,1.4843e-08
0.28421,3.9989e-06,1.4659e-08
0.28455,3.9743e-06,1.4749e-08
0.2849,3.9686e-06,1.5016e-08
0.28524,3.941e-06,1.4895e-08
0.28558,4.0044e-06,1.4915e-08
0.28593,3.9352e-06,1.4838e-08
0.28627,3.9781e-06,1.5024e-08
0.28662,3.9447e-06,1.519e-08
0.28696,3.9627e-06,1.5262e-08
0.28731,3.9018e-06,1.5205e-08
0.28765,3.9988e-06,1.5202e-08
0.288,3.9765e-06,1.532e-08
0.28834,3.9e-06,1.524e-08
0.28869,3.9199e-06,1.5208e-08
0.28903,3.9439e-06,1.5401e-08
0.28938,3.9285e-06,1.5492e-08
0.28972,3.9681e-06,1.5467e-08
0.29006,3.9523e-06,1.5707e-08
0.29041,3.9341e-06,1.5473e-08
0.29075,3.9903e-06,1.5801e-08
0.2911,3.983e-06,1.5809e-08
0.29144,3.9229e-06,1.5641e-08
0.29179,3.8763e-06,1.5581e-08
0.29213,3.9415e-06,1.5665e-08
0.29248,3.9665e-06,1.5918e-08
0.29282,3.9234e-06,1.5741e-08
0.29317,4.001e-06,1.5875e-08
0.29351,3.9951e-06,1.588e-08
0.29385,4.0072e-06,1.5834e-08
0.2942,3.9986e-06,1.5841e-08
0.29454,3.9782e-06,1.5956e-08
0.29489,3.9248e-06,1.5779e-08
0.29523,3.9113e-06,1.5941e-08
0.29558,4.0057e-06,1.5892e-08
0.29592,3.9986e-06,1.5818e-08
0.29627,4.0382e-06,1.5944e-08
0.29661,3.9502e-06,1.5674e-08
0.29695,4.0003e-06,1.6116e-08
0.2973,4.0019e-06,1.5915e-08
0.29764,3.9649e-06,1.5828e-08
0.29799,3.9512e-06,1.5698e-08
0.29833,3.986e-06,1.574e-08
0.29868,3.9943e-06,1.6002e-08
0.29902,3.9631e-06,1.5977e-08
0.29937,3.9519e-06,1.5858e-08
0.29971,3.9785e-06,1.5971e-08
0.30005,3.9247e-06,1.572e-08
0.3004,3.9309e-06,1.5746e-08
0.30074,3.9975e-06,1.601e-08
0.30109,3.5935e-05,3.9206e-06
0.30143,3.9997e-06,1.5894e-08
0.30178,3.9672e-06,1.5676e-08
0.30212,4.003e-06,1.602e-08
0.30247,4.0223e-06,1.6044e-08
0.30281,4.0033e-06,1.5805e-08
0.30315,3.9588e-06,1.5861e-08
0.3035,3.9628e-06,1.5865e-08
0.30384,3.9804e-06,1.5841e-08
0.30419,3.9877e-06,1.5849e-08
0.30453,3.99e-06,1.5924e-08
0.30488,3.9599e-06,1.5794e-08
0.30522,4.0601e-06,1.6192e-08
0.30556,4.0022e-06,1.5835e-08
0.30591,3.9773e-06,1.5787e-08
0.30625,3.9995e-06,1.6121e-08
0.3066,3.9876e-06,1.6072e-08
0.30694,3.9928e-06,1.5858e-08
0.30729,3.9556e-06,1.6029e-08
0.30763,3.9868e-06,1.5906e-08
0.30798,3.9853e-06,1.6077e-08
0.30832,4.0064e-06,1.6028e-08
0.30866,4.0244e-06,1.6103e-08
0.30901,3.9623e-06,1.603e-08
0.30935,3.977e-06,1.6131e-08
0.3097,3.993e-06,1.6083e-08
0.31004,3.9967e-06,1.6176e-08
0.31039,3.9269e-06,1.5897e-08
0.31073,3.9295e-06,1.6068e-08
0.31107,3.9727e-06,1.5906e-08
0.31142,3.9793e-06,1.6206e-08
0.31176,4.0492e-06,1.617e-08
0.31211,3.9801e-06,1.5954e-08
0.31245,4.0251e-06,1.6241e-08
0.3128,3.9719e-06,1.5985e-08
0.31314,3.9642e-06,1.6014e-08
0.31348,3.9504e-06,1.6409e-08
0.31383,3.9867e-06,1.6144e-08
0.31417,3.9965e-06,1.6148e-08
0.31452,3.9397e-06,1.5984e-08
0.31486,3.9582e-06,1.6129e-08
0.31521,3.9683e-06,1.6283e-08
0.31555,3.9802e-06,1.611e-08
0.31589,3.9979e-06,1.6365e-08
0.31624,4.0209e-06,1.6167e-08
0.31658,3.9682e-06,1.6071e-08
0.31693,3.9799e-06,1.6223e-08
0.31727,3.9352e-06,1.6111e-08
0.31761,4.044e-06,1.6383e-08
0.31796,3.9515e-06,1.6263e-08
0.3183,3.9931e-06,1.6321e-08
0.31865,3.9981e-06,1.6251e-08
0.31899,4.0176e-06,1.63e-08
0.31934,3.9577e-06,1.6329e-08
0.31968,3.9995e-06,1.6382e-08
0.32002,4.0056e-06,1.6202e-08
0.32037,3.9818e-06,1.6538e-08
0.32071,4.0091e-06,1.6416e-08
0.32106,3.9992e-06,1.6564e-08
0.3214,4.005e-06,1.6565e-08
0.32174,4.0105e-06,1.6197e-08
0.32209,3.9247e-06,1.6199e-08
0.32243,4.0076e-06,1.6336e-08
0.32278,3.9677e-06,1.6315e-08
0.32312,3.9768e-06,1.6485e-08
0.32347,3.9746e-06,1.6379e-08
0.32381,3.9968e-06,1.64e-08
0.32415,3.9489e-06,1.6161e-08
0.3245,3.9517e-06,1.6295e-08
0.32484,3.9822e-06,1.6297e-08
0.32519,3.9958e-06,1.6342e-08
0.32553,3.9879e-06,1.6506e-08
0.32587,3.943e-06,1.623e-08
0.32622,4.0222e-06,1.6389e-08
0.32656,4.0246e-06,1.6483e-08
0.32691,3.9872e-06,1.6399e-08
0.32725,4.0073e-06,1.6544e-08
0.32759,3.954e-06,1.6577e-08
0.32794,3.9544e-06,1.6338e-08
0.32828,3.9456e-06,1.646e-08
0.32863,3.9958e-06,1.6515e-08
0.32897,3.9921e-06,1.6457e-08
0.32931,4.0118e-06,1.6607e-08
0.32966,3.9951e-06,1.7182e-08
0.33,3.9674e-06,1.7439e-08
0.33035,4.0025e-06,1.8088e-08
0.33069,3.9706e-06,1.8093e-08
0.33103,3.9702e-06,1.8498e-08
0.33138,4.0032e-06,1.8757e-08
0.33172,4.0516e-06,1.9195e-08
0.33207,4.0427e-06,1.9333e-08
0.33241,4.0684e-06,1.9413e-08
0.33276,4.0494e-06,1.9848e-08
0.3331,4.0371e-06,1.9795e-08
0.33344,4.0182e-06,2.016e-08
0.33379,4.0291e-06,2.0352e-08
0.33413,4.0478e-06,2.0723e-08
0.33447,4.0538e-06,2.0655e-08
0.33482,4.0757e-06,2.1299e-08
0.33516,4.0174e-06,2.1104e-08
0.33551,4.0009e-06,2.0347e-08
0.33585,4.0435e-06,1.9683e-08
0.33619,4.0607e-06,1.9603e-08
0.33654,4.1058e-06,1.949e-08
0.33688,4.0463e-06,1.8998e-08
0.33723,3.984e-06,1.8883e-08
0.33757,4.022e-06,1.8878e-08
0.33791,4.0141e-06,1.8518e-08
0.33826,4.1018e-06,1.8923e-08
0.3386,3.9911e-06,1.8367e-08
0.33895,3.9828e-06,1.8469e-08
0.33929,4.0487e-06,1.8712e-08
0.33963,4.0055e-06,1.7924e-08
0.33998,4.0035e-06,1.8505e-08
0.34032,4.0075e-06,1.7959e-08
0.34067,4.0132e-06,1.8283e-08
0.34101,4.1036e-06,1.824e-08
0.34135,3.9896e-06,1.8154e-08
0.3417,4.017e-06,1.8296e-08
0.34204,4.0909e-06,1.8077e-08
0.34239,4.0811e-06,1.8504e-08
0.34273,4.0318e-06,1.805e-08
0.34307,4.0618e-06,1.8256e-08
0.34342,4.0461e-06,1.8505e-08
0.34376,4.0199e-06,1.7679e-08
0.3441,4.0228e-06,1.8273e-08
0.34445,4.0798e-06,1.8101e-08
0.34479,4.0246e-06,1.795e-08
0.34514,4.0504e-06,1.8301e-08
0.34548,3.9999e-06,1.7776e-08
0.34582,4.0638e-06,1.8362e-08
0.34617,3.9677e-06,1.7782e-08
0.34651,4.0884e-06,1.8053e-08
0.34685,4.0337e-06,1.7857e-08
0.3472,4.0708e-06,1.7879e-08
0.34754,4.0854e-06,1.8197e-08
0.34789,4.0708e-06,1.78e-08
0.34823,4.0994e-06,1.8053e-08
0.34857,4.0576e-06,1.7874e-08
0.34892,4.0431e-06,1.7913e-08
0.34926,4.0988e-06,1.8198e-08
0.3496,4.0307e-06,1.7593e-08
0.34995,4.0673e-06,1.7988e-08
0.35029,4.0461e-06,1.772e-08
0.35064,4.0583e-06,1.7723e-08
0.35098,4.0898e-06,1.7891e-08
0.35132,3.979e-06,1.7469e-08
0.35167,4.0523e-06,1.8092e-08
0.35201,4.0531e-06,1.7226e-08
0.35235,4.0383e-06,1.7745e-08
0.3527,4.082e-06,1.7724e-08
0.35304,4.019e-06,1.758e-08
0.35339,4.0386e-06,1.7494e-08
0.35373,4.064e-06,1.7404e-08
0.35407,4.0819e-06,1.771e-08
0.35442,4.0634e-06,1.7311e-08
0.35476,4.1218e-06,1.7761e-08
0.3551,4.0557e-06,1.7637e-08
0.35545,4.0425e-06,1.7524e-08
0.35579,3.9944e-06,1.7383e-08
0.35614,4.06e-06,1.7469e-08
0.35648,4.0617e-06,1.7887e-08
0.35682,4.0263e-06,1.7268e-08
0.35717,4.0641e-06,1.7802e-08
0.35751,4.0797e-06,1.7781e-08
0.35785,4.0435e-06,1.7382e-08
0.3582,4.0849e-06,1.7996e-08
0.35854,4.0723e-06,1.7454e-08
0.35888,4.0941e-06,1.7971e-08
0.35923,4.0194e-06,1.7481e-08
0.35957,4.0864e-06,1.7658e-08
0.35992,4.0767e-06,1.7757e-08
0.36026,4.0564e-06,1.7489e-08
0.3606,4.0446e-06,1.77e-08
0.36095,3.9902e-06,1.7379e-08
0.36129,4.0922e-06,1.7861e-08
0.36163,4.0827e-06,1.7714e-08
0.36198,4.095e-06,1.7518e-08
0.36232,4.0466e-06,1.7584e-08
0.36266,4.0626e-06,1.7605e-08
0.36301,4.091e-06,1.7452e-08
0.36335,4.0688e-06,1.7873e-08
0.36369,4.0508e-06,1.7312e-08
0.36404,4.0337e-06,1.7635e-08
0.36438,4.0042e-06,1.7545e-08
0.36473,4.0705e-06,1.7569e-08
0.36507,4.0964e-06,1.7834e-08
0.36541,4.0978e-06,1.7504e-08
0.36576,4.0721e-06,1.7649e-08
0.3661,4.078e-06,1.7744e-08
0.36644,4.0519e-06,1.7572e-08
0.36679,4.0654e-06,1.7784e-08
0.36713,4.1018e-06,1.7513e-08
0.36747,4.1063e-06,1.7846e-08
0.36782,4.0809e-06,1.7673e-08
0.36816,4.069e-06,1.7493e-08
0.3685,4.0737e-06,1.7825e-08
0.36885,4.0094e-06,1.7325e-08
0.36919,4.1506e-06,1.7756e-08
0.36953,4.0528e-06,1.7675e-08
0.36988,4.0553e-06,1.7463e-08
0.37022,3.9972e-06,1.734e-08
0.37056,4.1279e-06,1.7777e-08
0.37091,3.9953e-06,1.7444e-08
0.37125,4.0656e-06,1.7681e-08
0.37159,4.0812e-06,1.7534e-08
0.37194,4.0925e-06,1.7754e-08
0.37228,4.0842e-06,1.7712e-08
0.37263,4.0976e-06,1.752e-08
0.37297,4.0786e-06,1.7815e-08
0.37331,4.1148e-06,1.7752e-08
0.37366,4.1e-06,1.7656e-08
0.374,4.0673e-06,1.7837e-08
0.37434,4.0701e-06,1.7404e-08
0.37469,4.1397e-06,1.792e-08
0.37503,4.0776e-06,1.7488e-08
0.37537,4.0451e-06,1.748e-08
0.37572,4.1273e-06,1.7736e-08
0.37606,4.0458e-06,1.7373e-08
0.3764,3.9911e-06,1.7624e-08
0.37675,4.0468e-06,1.7204e-08
0.37709,4.0188e-06,1.7461e-08
0.37743,4.0061e-06,1.7451e-08
0.37778,4.0796e-06,1.7337e-08
0.37812,4.0242e-06,1.7588e-08
0.37846,4.117e-06,1.7392e-08
0.37881,4.0397e-06,1.7221e-08
0.37915,4.034e-06,1.7457e-08
0.37949,4.0817e-06,1.7377e-08
0.37984,4.1023e-06,1.761e-08
0.38018,4.0964e-06,1.7365e-08
0.38052,4.0308e-06,1.7569e-08
0.38087,4.0265e-06,1.7388e-08
0.38121,4.0348e-06,1.7443e-08
0.38155,4.1009e-06,1.7559e-08
0.3819,4.0635e-06,1.7289e-08
0.38224,4.0003e-06,1.7446e-08
0.38258,4.0485e-06,1.7343e-08
0.38292,4.13e-06,1.7508e-08
0.38327,4.0199e-06,1.7499e-08
0.38361,4.0654e-06,1.7273e-08
0.38395,4.0139e-06,1.7323e-08
0.3843,4.0306e-06,1.7377e-08
0.38464,3.9486e-06,1.7144e-08
0.38498,4.0749e-06,1.75e-08
0.38533,4.0695e-06,1.7272e-08
0.38567,4.1008e-06,1.748e-08
0.38601,4.0549e-06,1.727e-08
0.38636,3.9984e-06,1.728e-08
0.3867,4.0895e-06,1.7425e-08
0.38704,4.0998e-06,1.734e-08
0.38739,4.1149e-06,1.751e-08
0.38773,4.0401e-06,1.7342e-08
0.38807,4.0333e-06,1.731e-08
0.38842,4.0692e-06,1.7478e-08
0.38876,4.0977e-06,1.745e-08
0.3891,4.0669e-06,1.7515e-08
0.38945,4.0305e-06,1.7309e-08
0.38979,4.0483e-06,1.7272e-08
0.39013,4.0769e-06,1.7567e-08
0.39048,4.0679e-06,1.7101e-08
0.39082,4.068e-06,1.7691e-08
0.39116,4.0797e-06,1.7445e-08
0.3915,4.0872e-06,1.7422e-08
0.39185,4.0581e-06,1.7431e-08
0.39219,3.9961e-06,1.7283e-08
0.39253,4.0617e-06,1.7568e-08
0.39288,4.1128e-06,1.7621e-08
0.39322,4.0484e-06,1.7501e-08
0.39356,4.1574e-06,1.7455e-08
0.39391,4.0626e-06,1.7562e-08
0.39425,4.0782e-06,1.7501e-08
0.39459,4.0032e-06,1.7351e-08
0.39494,4.0733e-06,1.7397e-08
0.39528,4.0738e-06,1.7654e-08
0.39562,4.1245e-06,1.76e-08
0.39596,4.0892e-06,1.774e-08
0.39631,4.0257e-06,1.7364e-08
0.39665,4.0483e-06,1.7272e-08
0.39699,4.007e-06,1.7332e-08
0.39734,4.1021e-06,1.7511e-08
0.39768,4.0293e-06,1.7433e-08
0.39802,4.0817e-06,1.7543e-08
0.39837,4.0618e-06,1.7473e-08
0.39871,4.0362e-06,1.7441e-08
0.39905,4.0588e-06,1.7552e-08
0.39939,4.1079e-06,1.7534e-08
0.39974,4.056e-06,1.7472e-08
0.40008,4.0783e-06,1.753e-08
0.40042,4.0999e-06,1.7754e-08
0.40077,4.0912e-06,1.748e-08
0.40111,4.0399e-06,1.7486e-08
0.40145,4.0387e-06,1.7345e-08
0.4018,4.0912e-06,1.7584e-08
0.40214,4.0747e-06,1.7463e-08
0.40248,4.1252e-06,1.868e-08
0.40282,4.0675e-06,1.8906e-08
0.40317,4.0691e-06,1.947e-08
0.40351,4.0985e-06,1.9902e-08
0.40385,4.1177e-06,2.0441e-08
0.4042,4.0355e-06,2.0863e-08
0.40454,4.0603e-06,2.0869e-08
0.40488,4.086e-06,2.1037e-08
0.40522,3.9936e-06,2.1596e-08
0.40557,4.0943e-06,2.174e-08
0.40591,4.0832e-06,2.2329e-08
0.40625,4.0164e-06,2.1993e-08
0.4066,4.0337e-06,2.2262e-08
0.40694,4.0488e-06,2.3014e-08
0.40728,4.0195e-06,2.253e-08
0.40762,4.0559e-06,2.3217e-08
0.40797,4.1088e-06,2.3175e-08
0.40831,4.0819e-06,2.1934e-08
0.40865,4.1102e-06,2.1648e-08
0.409,4.1053e-06,2.093e-08
0.40934,4.108e-06,2.0607e-08
0.40968,4.105e-06,2.0481e-08
0.41002,4.1227e-06,2.0315e-08
0.41037,4.0591e-06,2.0206e-08
0.41071,4.0673e-06,1.9914e-08
0.41105,4.0962e-06,1.9785e-08
0.41139,4.0542e-06,1.9822e-08
0.41174,4.1008e-06,1.9694e-08
0.41208,4.0728e-06,1.9597e-08
0.41242,4.1067e-06,1.9502e-08
0.41277,4.1208e-06,1.9688e-08
0.41311,4.0689e-06,1.9324e-08
0.41345,4.1354e-06,1.9531e-08
0.41379,4.0733e-06,1.9606e-08
0.41414,4.0987e-06,1.9555e-08
0.41448,4.0626e-06,1.8952e-08
0.41482,4.0554e-06,1.9495e-08
0.41517,4.0209e-06,1.8906e-08
0.41551,4.0357e-06,1.9157e-08
0.41585,4.0401e-06,1.8918e-08
0.41619,4.0765e-06,1.8953e-08
0.41654,4.0509e-06,1.9131e-08
0.41688,3.9908e-06,1.8733e-08
0.41722,4.1008e-06,1.8998e-08
0.41756,4.1037e-06,1.8956e-08
0.41791,4.0358e-06,1.8466e-08
0.41825,4.0745e-06,1.9088e-08
0.41859,4.0709e-06,1.8857e-08
0.41893,4.0651e-06,1.8637e-08
0.41928,4.0646e-06,1.8739e-08
0.41962,4.1205e-06,1.8828e-08
0.41996,4.0802e-06,1.8997e-08
0.42031,4.0329e-06,1.8619e-08
0.42065,4.0593e-06,1.8878e-08
0.42099,4.0334e-06,1.8795e-08
0.42133,4.0315e-06,1.8617e-08
0.42168,4.0903e-06,1.8755e-08
0.42202,4.067e-06,1.8818e-08
0.42236,4.0858e-06,1.8645e-08
0.4227,4.0481e-06,1.8914e-08
0.42305,4.0778e-06,1.8639e-08
0.42339,4.0548e-06,1.8726e-08
0.42373,4.0294e-06,1.8483e-08
0.42407,4.051e-06,1.8784e-08
0.42442,3.992e-06,1.86e-08
0.42476,4.0358e-06,1.8521e-08
0.4251,4.091e-06,1.8916e-08
0.42544,4.0524e-06,1.8538e-08
0.42579,3.9861e-06,1.8358e-08
0.42613,4.0232e-06,1.8546e-08
0.42647,4.048e-06,1.876e-08
0.42681,3.9896e-06,1.846e-08
0.42716,4.094e-06,1.8715e-08
0.4275,4.0202e-06,1.8562e-08
0.42784,4.0166e-06,1.8372e-08
0.42818,4.0503e-06,1.8385e-08
0.42853,4.0484e-06,1.8494e-08
0.42887,4.0553e-06,1.824e-08
0.42921,4.0371e-06,1.8421e-08
0.42955,4.019e-06,1.8438e-08
0.4299,4.05e-06,1.8392e-08
0.43024,4.0148e-06,1.8456e-08
0.43058,4.0838e-06,1.8146e-08
0.43092,4.0038e-06,1.8339e-08
0.43127,4.0691e-06,1.813e-08
0.43161,4.0255e-06,1.8141e-08
0.43195,4.0152e-06,1.8176e-08
0.43229,4.0367e-06,1.8195e-08
0.43264,4.0108e-06,1.791e-08
0.43298,4.0441e-06,1.8315e-08
0.43332,4.042e-06,1.8139e-08
0.43366,3.9319e-06,1.8149e-08
0.43401,4.0612e-06,1.7852e-08
0.43435,4.0852e-06,1.8307e-08
0.43469,4.016e-06,1.8161e-08
0.43503,4.0224e-06,1.812e-08
0.43537,4.1159e-06,1.8296e-08
0.43572,4.0708e-06,1.8181e-08
0.43606,4.0602e-06,1.8226e-08
0.4364,4.0368e-06,1.8224e-08
0.43674,3.9967e-06,1.7939e-08
0.43709,4.0049e-06,1.7993e-08
0.43743,3.9673e-06,1.8131e-08
0.43777,4.0238e-06,1.7894e-08
0.43811,3.9821e-06,1.82e-08
0.43846,4.0564e-06,1.8028e-08
0.4388,3.9762e-06,1.8089e-08
0.43914,4.0313e-06,1.7932e-08
0.43948,3.991e-06,1.7961e-08
0.43982,4.0219e-06,1.8211e-08
0.44017,4.0378e-06,1.7921e-08
0.44051,4.0324e-06,1.8071e-08
0.44085,3.967e-06,1.8019e-08
0.44119,4.0806e-06,1.8036e-08
0.44154,3.9948e-06,1.8014e-08
0.44188,4.0798e-06,1.7924e-08
0.44222,3.9833e-06,1.7929e-08
0.44256,4.0632e-06,1.8105e-08
0.4429,4.0624e-06,1.8078e-08
0.44325,4.0027e-06,1.7927e-08
0.44359,4.0133e-06,1.7935e-08
0.44393,4.0691e-06,1.8139e-08
0.44427,4.031e-06,1.814e-08
0.44462,4.0663e-06,1.8081e-08
0.44496,4.0093e-06,1.8129e-08
0.4453,4.0408e-06,1.8047e-08
0.44564,4.0061e-06,1.8001e-08
0.44598,4.0068e-06,1.8132e-08
0.44633,4.1169e-06,1.8066e-08
0.44667,3.9876e-06,1.8037e-08
0.44701,3.9941e-06,1.7903e-08
0.44735,3.9791e-06,1.788e-08
0.4477,4.0335e-06,1.8289e-08
0.44804,4.0565e-06,1.813e-08
0.44838,4.0207e-06,1.787e-08
0.44872,4.0472e-06,1.8013e-08
0.44906,4.0066e-06,1.7898e-08
0.44941,4.0143e-06,1.7918e-08
0.44975,3.9818e-06,1.7941e-08
0.45009,4.0763e-06,1.8058e-08
0.45043,4.0278e-06,1.8068e-08
0.45077,4.0128e-06,1.7942e-08
0.45112,4.0646e-06,1.8236e-08
0.45146,3.9723e-06,1.7749e-08
0.4518,3.9959e-06,1.8016e-08
0.45214,4.0568e-06,1.7908e-08
0.45248,4.0175e-06,1.7922e-08
0.45283,4.0324e-06,1.8057e-08
0.45317,4.0305e-06,1.8074e-08
0.45351,4.0233e-06,1.7982e-08
0.45385,4.0005e-06,1.7953e-08
0.45419,4.0238e-06,1.8034e-08
0.45454,4.1106e-06,1.8237e-08
0.45488,4.0255e-06,1.7803e-08
0.45522,4.0651e-06,1.8104e-08
0.45556,3.9442e-06,1.7971e-08
0.4559,3.9378e-06,1.7739e-08
0.45625,3.9921e-06,1.7977e-08
0.45659,4.0867e-06,1.8276e-08
0.45693,4.031e-06,1.7931e-08
0.45727,4.0229e-06,1.801e-08
0.45761,3.9938e-06,1.7895e-08
0.45796,3.9895e-06,1.7857e-08
0.4583,4.0023e-06,1.797e-08
0.45864,4.044e-06,1.8091e-08
0.45898,3.9731e-06,1.7725e-08
0.45932,4.0134e-06,1.7853e-08
0.45967,4.0061e-06,1.7946e-08
0.46001,4.0218e-06,1.7987e-08
0.46035,4.0079e-06,1.8019e-08
0.46069,4.0319e-06,1.8094e-08
0.46103,3.982e-06,1.79e-08
0.46137,4.0402e-06,1.8132e-08
0.46172,4.0668e-06,1.8004e-08
0.46206,4.0692e-06,1.8197e-08
0.4624,4.0359e-06,1.7955e-08
0.46274,4.0026e-06,1.7888e-08
0.46308,4.0506e-06,1.7933e-08
0.46343,3.9508e-06,1.7901e-08
0.46377,3.9729e-06,1.7844e-08
0.46411,4.1093e-06,1.821e-08
0.46445,4.0511e-06,1.7655e-08
0.46479,4.1041e-06,1.8144e-08
0.46513,3.9898e-06,1.7987e-08
0.46548,4.0338e-06,1.8145e-08
0.46582,4.0097e-06,1.7909e-08
0.46616,3.9907e-06,1.7831e-08
0.4665,3.9868e-06,1.7682e-08
0.46684,4.0179e-06,1.7955e-08
0.46719,4.0473e-06,1.7804e-08
0.46753,4.0471e-06,1.7989e-08
0.46787,4.0236e-06,1.7975e-08
0.46821,4.0202e-06,1.7807e-08
0.46855,4.0549e-06,1.7783e-08
0.46889,4.0316e-06,1.7717e-08
0.46924,3.9672e-06,1.7829e-08
0.46958,3.9482e-06,1.7366e-08
0.46992,3.9813e-06,1.7646e-08
0.47026,4.05e-06,1.7554e-08
0.4706,3.9794e-06,1.7622e-08
0.47094,4.0037e-06,1.7582e-08
0.47129,3.9697e-06,1.7712e-08
0.47163,4.0305e-06,1.7473e-08
0.47197,4.0121e-06,1.7527e-08
0.47231,4.0305e-06,1.7706e-08
0.47265,4.0436e-06,1.7718e-08
0.47299,4.0121e-06,1.7336e-08
0.47334,3.9782e-06,1.7565e-08
0.47368,4.0362e-06,1.7731e-08
0.47402,4.0608e-06,1.7489e-08
0.47436,4.0224e-06,1.7614e-08
0.4747,4.0228e-06,1.7533e-08
0.47504,4.0285e-06,1.866e-08
0.47539,3.9915e-06,1.924e-08
0.47573,3.9567e-06,1.9603e-08
0.47607,4.0425e-06,2.0347e-08
0.47641,4.0477e-06,2.0992e-08
0.47675,4.0093e-06,2.0792e-08
0.47709,4.1305e-06,2.1799e-08
0.47744,3.9916e-06,2.1462e-08
0.47778,3.9869e-06,2.2162e-08
0.47812,4.048e-06,2.2474e-08
0.47846,4.0581e-06,2.2969e-08
0.4788,4.0232e-06,2.3008e-08
0.47914,3.9464e-06,2.3197e-08
0.47948,3.923e-06,2.3757e-08
0.47983,3.9887e-06,2.3552e-08
0.48017,3.9997e-06,2.4011e-08
0.48051,3.9834e-06,2.4444e-08
0.48085,3.9816e-06,2.4803e-08
0.48119,4.0276e-06,2.4997e-08
0.48153,4.0275e-06,2.5623e-08
0.48187,4.0055e-06,2.5565e-08
0.48222,4.0238e-06,2.632e-08
0.48256,4.0382e-06,2.6489e-08
0.4829,4.0591e-06,2.6591e-08
0.48324,4.0335e-06,2.7039e-08
0.48358,4.004e-06,2.7281e-08
0.48392,4.0345e-06,2.7376e-08
0.48426,3.9768e-06,2.7474e-08
0.48461,3.9509e-06,2.7777e-08
0.48495,4.01e-06,2.8397e-08
0.48529,3.9677e-06,2.8212e-08
0.48563,3.9488e-06,2.8533e-08
0.48597,3.9899e-06,2.9493e-08
0.48631,3.9511e-06,2.8658e-08
0.48665,4.031e-06,2.9369e-08
0.487,4.0018e-06,2.9628e-08
0.48734,4.0328e-06,2.9668e-08
0.48768,3.9731e-06,2.9948e-08
0.48802,4.0387e-06,3.0517e-08
0.48836,3.9838e-06,3.0213e-08
0.4887,3.9689e-06,3.0741e-08
0.48904,3.9647e-06,3.0466e-08
0.48939,4.0043e-06,3.1337e-08
0.48973,4.0182e-06,3.1014e-08
0.49007,4.0355e-06,3.2047e-08
0.49041,3.9169e-06,3.1851e-08
0.49075,4.0203e-06,3.2149e-08
0.49109,4.0666e-06,3.3173e-08
0.49143,3.9385e-06,3.2338e-08
0.49177,4.0646e-06,3.3599e-08
0.49212,3.9294e-06,3.3064e-08
0.49246,4.0162e-06,3.4069e-08
0.4928,4.0235e-06,3.4265e-08
0.49314,4.0029e-06,3.4846e-08
0.49348,4.0205e-06,3.4761e-08
0.49382,3.9478e-06,3.5272e-08
0.49416,4.0625e-06,3.567e-08
0.4945,4.0307e-06,3.6411e-08
0.49485,3.9631e-06,3.5655e-08
0.49519,3.9895e-06,3.6972e-08
0.49553,4.0135e-06,3.7085e-08
0.49587,4.0492e-06,3.8016e-08
0.49621,4.0405e-06,3.7989e-08
0.49655,3.9961e-06,3.9188e-08
0.49689,3.9829e-06,3.851e-08
0.49723,4.0226e-06,4.0056e-08
0.49757,3.9839e-06,3.9678e-08
0.49792,4.1022e-06,3.9541e-08
0.49826,4.0298e-06,4.1358e-08
0.4986,3.9236e-06,4.0054e-08
0.49894,3.9476e-06,4.1004e-08
0.49928,3.9753e-06,4.1654e-08
0.49962,4.0746e-06,4.2599e-08
0.49996,3.9586e-06,4.2222e-08
0.5003,4.052e-06,4.3613e-08
0.50064,4.0363e-06,4.2594e-08
0.50099,3.9592e-06,4.4714e-08
0.50133,4.0902e-06,4.4989e-08
0.50167,3.9751e-06,4.5437e-08
0.50201,4.0331e-06,4.5163e-08
0.50235,4.0358e-06,4.7236e-08
0.50269,4.0106e-06,4.6156e-08
0.50303,4.0049e-06,4.6756e-08
0.50337,4.0568e-06,4.8399e-08
0.50371,3.955e-06,4.8293e-08
0.50406,4.0169e-06,4.904e-08
0.5044,4.0084e-06,4.9451e-08
0.50474,4.0509e-06,5.0753e-08
0.50508,3.9886e-06,4.9189e-08
0.50542,3.9737e-06,5.178e-08
0.50576,4.0781e-06,5.1338e-08
0.5061,3.917e-06,5.3528e-08
0.50644,4.0364e-06,5.3125e-08
0.50678,3.9517e-06,5.3727e-08
0.50712,4.0872e-06,5.5405e-08
0.50746,4.0615e-06,5.4922e-08
0.50781,4.0721e-06,5.6591e-08
0.50815,3.9959e-06,5.7007e-08
0.50849,4.0669e-06,5.8459e-08
0.50883,3.9161e-06,5.7985e-08
0.50917,4.1113e-06,5.9175e-08
0.50951,3.9577e-06,5.8831e-08
0.50985,4.0483e-06,6.1458e-08
0.51019,3.9637e-06,6.1053e-08
0.51053,4.0617e-06,6.3894e-08
0.51087,3.9534e-06,6.3338e-08
0.51121,4.0145e-06,6.5068e-08
0.51156,4.0688e-06,6.482e-08
0.5119,4.0383e-06,6.7395e-08
0.51224,4.0201e-06,6.6966e-08
0.51258,3.94e-06,6.892e-08
0.51292,3.9618e-06,6.8613e-08
0.51326,3.9665e-06,7.0846e-08
0.5136,4.0085e-06,7.0804e-08
0.51394,4.088e-06,7.3508e-08
0.51428,3.9401e-06,7.2439e-08
0.51462,3.9481e-06,7.5079e-08
0.51496,4.0757e-06,7.5962e-08
0.5153,4.0383e-06,7.7547e-08
0.51565,4.1885e-06,8.0133e-08
0.51599,3.9673e-06,7.8854e-08
0.51633,3.898e-06,7.9655e-08
0.51667,4.0028e-06,8.2355e-08
0.51701,4.0797e-06,8.7242e-08
0.51735,4.0143e-06,8.5393e-08
0.51769,4.0917e-06,9.0515e-08
0.51803,4.115e-06,8.6776e-08
0.51837,4.0703e-06,9.5303e-08
0.51871,3.95e-06,9.1651e-08
0.51905,3.9971e-06,9.7156e-08
0.51939,4.062e-06,9.6902e-08
0.51973,4.0289e-06,1.0352e-07
0.52007,4.0644e-06,1.0105e-07
0.52042,4.0906e-06,1.0474e-07
0.52076,3.9747e-06,1.0602e-07
0.5211,3.8318e-06,1.0881e-07
0.52144,3.9935e-06,1.1009e-07
0.52178,4.0716e-06,1.1767e-07
0.52212,3.9948e-06,1.1673e-07
0.52246,3.9705e-06,1.2091e-07
0.5228,3.9399e-06,1.2441e-07
0.52314,3.9824e-06,1.1758e-07
0.52348,4.0655e-06,1.2753e-07
0.52382,3.9896e-06,1.2244e-07
0.52416,3.9473e-06,1.3429e-07
0.5245,3.9694e-06,1.2755e-07
0.52484,3.9561e-06,1.3399e-07
0.52518,3.8777e-06,1.3562e-07
0.52552,4.0829e-06,1.4807e-07
0.52586,3.912e-06,1.4271e-07
0.52621,4.0456e-06,1.5333e-07
0.52655,4.1754e-06,1.6265e-07
0.52689,4.0575e-06,1.711e-07
0.52723,4.0991e-06,1.6904e-07
0.52757,4.0093e-06,1.7475e-07
0.52791,4.1671e-06,1.8157e-07
0.52825,3.9981e-06,1.8879e-07
0.52859,3.9675e-06,2.0014e-07
0.52893,4.0018e-06,1.9611e-07
0.52927,4.0899e-06,2.1179e-07
0.52961,4.034e-06,2.1923e-07
0.52995,3.9763e-06,2.3335e-07
0.53029,4.0744e-06,2.2365e-07
0.53063,3.9259e-06,2.2926e-07
0.53097,3.9567e-06,2.3015e-07
0.53131,4.0479e-06,2.5394e-07
0.53165,4.16e-06,2.5233e-07
0.53199,4.1535e-06,2.5066e-07
0.53233,3.8673e-06,2.6381e-07
0.53267,3.8843e-06,2.7414e-07
0.53301,4.1349e-06,2.8645e-07
0.53335,3.9846e-06,2.9136e-07
0.5337,3.9655e-06,2.87e-07
0.53404,4.0829e-06,3.0107e-07
0.53438,4.2488e-06,3.1877e-07
0.53472,3.9978e-06,3.211e-07
0.53506,4.053e-06,3.3066e-07
0.5354,3.7688e-06,3.3234e-07
0.53574,3.9959e-06,3.4653e-07
0.53608,4.0898e-06,3.6388e-07
0.53642,4.376e-06,3.8395e-07
0.53676,4.1393e-06,3.9878e-07
0.5371,4.0674e-06,3.9796e-07
0.53744,4.2121e-06,4.3948e-07
0.53778,3.7761e-06,4.3081e-07
0.53812,4.1621e-06,4.5302e-07
0.53846,4.0996e-06,4.5891e-07
0.5388,4.3356e-06,5.1828e-07
0.53914,4.0284e-06,5.0447e-07
0.53948,3.9332e-06,5.4832e-07
0.53982,3.9973e-06,5.7331e-07
0.54016,3.9707e-06,6.0855e-07
0.5405,4.0465e-06,6.3739e-07
0.54084,3.9607e-06,6.731e-07
0.54118,3.8298e-06,6.6495e-07
0.54152,4.1619e-06,7.7347e-07
0.54186,3.7406e-06,7.7163e-07
0.5422,4.0194e-06,8.932e-07
0.54254,4.2186e-06,9.2704e-07
0.54288,3.1157e-06,9.0901e-07
0.54322,4.4924e-06,1.165e-06
0.54356,4.4007e-06,1.2908e-06
0.5439,4.4496e-06,1.6659e-06
0.54424,4.0432e-06,1.6484e-06
0.54458,4.1493e-06,1.9157e-06
0.54492,3.2406e-06,2.147e-06
0.54526,3.2272e-06,2.8651e-06
0.5456,4.0235e-06,3.3267e-06
0.54594,4.5768e-06,6.6333e-06
0.54628,4.6208e-06,1.5559e-05
0.54662,-8.8015e-06,0
